2 10
7 13
38 9
39 19
20 50
13 57
12 9
42 15
12 46
6 16
21 28
6 15
21 36
54 41
35 25
37 26
57 39
57 54
31 50
23 40
37 29
8 55
6 40
42 57
45 24
38 54
9 18
54 53
18 40
33 22
24 47
54 52
22 12
50 34
28 26
36 29
29 13
59 56
24 55
5 29
35 41
7 4
7 21
10 42
15 14
36 20
19 11
44 22
42 37
36 59
51 32
40 43
21 6
16 49
10 13
55 54
26 7
52 38
26 56
15 22
55 47
12 0
25 12
47 40
20 54
0 15
47 2
33 28
24 48
44 15
8 53
49 44
8 45
9 35
24 45
52 14
53 40
33 59
32 25
13 15
9 9
48 48
51 49
24 19
35 51
38 19
53 30
9 6
18 43
25 6
34 5
2 38
50 51
18 2
56 47
49 29
28 2
10 45
14 59
56 48
52 32
29 20
33 46
48 22
44 59
3 30
10 55
21 41
30 12
5 15
58 36
14 15
28 42
12 14
5 8
40 17
7 55
25 32
49 12
26 4
9 16
3 8
36 17
39 47
7 28
49 40
3 0
15 27
10 49
59 13
49 14
23 58
19 28
27 32
2 1
31 58
18 11
4 6
15 59
59 59
57 10
17 5
25 37
47 24
9 21
31 25
45 45
56 57
38 7
15 2
9 37
43 49
16 20
41 45
30 23
15 41
4 7
54 8
13 16
40 35
26 19
21 15
19 54
43 21
5 2
57 32
44 24
37 47
2 44
21 56
35 34
35 17
36 18
53 29
47 11
13 19
49 13
23 45
25 31
23 54
4 30
27 21
48 39
36 12
14 57
56 33
50 49
58 39
40 13
56 27
40 12
23 25
34 21
39 13
29 18
6 5
14 25
41 38
27 38
54 35
39 56
23 49
30 58
10 12
31 56
28 55
40 5
54 47
1 16
56 5
17 40
54 19
56 40
43 53
4 14
16 14
18 33
32 36
3 13
47 18
28 24
14 12
4 59
57 35
18 13
51 8
38 36
40 25
12 17
16 35
57 36
37 9
23 32
43 15
25 1
3 38
57 47
22 24
46 12
0 5
22 27
34 24
50 33
5 42
18 1
52 57
13 32
21 1
34 45
41 26
35 42
36 52
15 50
35 7
15 40
18 5
34 28
11 41
54 24
4 23
0 20
24 5
4 45
57 9
56 28
40 16
42 31
5 49
23 14
3 56
7 16
38 45
14 32
20 45
57 43
10 24
32 51
31 29
53 15
27 56
48 0
31 33
4 0
36 10
21 46
12 3
26 17
52 56
32 52
50 27
11 39
30 13
36 38
14 2
20 23
59 57
57 29
57 23
24 23
5 46
36 21
22 35
58 23
20 28
25 10
19 33
53 32
3 27
38 46
57 49
49 41
32 39
50 35
22 0
52 13
34 3
25 48
48 54
21 48
3 14
53 58
31 45
32 13
46 48
12 34
44 0
45 2
58 4
26 29
25 19
36 43
22 6
28 39
15 31
58 1
1 40
31 51
53 6
18 6
54 3
13 43
39 38
7 34
32 9
9 36
48 27
27 55
33 52
27 37
28 20
33 2
3 21
11 2
41 53
53 5
36 11
15 35
7 37
38 12
40 42
46 28
16 57
38 59
55 32
40 45
41 34
50 25
46 40
40 11
25 33
27 5
39 25
39 54
46 38
41 10
58 15
39 20
33 26
36 41
22 20
55 34
38 16
3 15
56 34
42 34
6 8
11 55
26 43
44 11
54 18
51 36
27 16
12 12
1 28
54 31
29 0
9 27
14 28
39 33
33 17
49 27
28 17
53 53
43 0
24 31
4 54
32 2
43 22
13 59
50 23
48 32
18 52
22 56
25 46
38 50
57 45
1 54
55 48
19 16
41 57
39 34
46 57
55 40
28 48
42 43
55 51
50 19
40 52
23 31
40 3
51 47
30 20
23 8
17 46
48 44
3 7
30 49
39 27
29 51
45 30
14 51
22 10
35 43
48 17
34 52
11 45
10 14
21 31
29 54
17 3
7 24
13 31
25 53
54 42
52 16
20 17
15 16
1 25
47 23
29 52
43 3
20 4
46 33
7 15
35 45
21 53
17 36
16 3
33 31
1 4
32 20
18 21
25 14
38 0
48 34
47 19
48 55
11 22
15 21
42 46
58 2
8 58
7 57
42 26
3 4
42 27
44 3
20 13
23 43
0 37
22 19
34 57
19 34
48 7
11 21
41 17
52 53
0 59
7 38
14 7
48 43
19 39
41 7
18 23
43 6
10 41
34 20
31 48
56 54
13 10
28 6
5 4
59 43
21 29
56 50
8 54
16 12
28 54
19 1
58 26
32 49
55 44
35 6
53 49
43 5
20 8
20 30
11 24
55 59
21 4
21 18
18 10
41 8
58 11
35 15
7 3
59 48
19 29
42 21
27 4
52 55
0 51
39 39
31 9
2 3
32 53
54 46
27 12
17 25
40 50
53 27
9 52
39 15
14 9
38 47
13 51
41 9
33 42
30 35
8 5
44 33
59 25
8 8
52 6
38 27
34 10
21 32
11 12
1 43
10 6
21 42
8 40
48 14
42 35
1 26
59 15
54 30
11 46
22 2
35 59
28 52
9 5
5 21
15 44
29 9
48 56
20 57
59 5
9 25
21 19
6 35
54 5
1 15
27 18
12 21
3 58
18 26
41 11
14 29
41 59
2 59
42 24
31 13
4 31
40 57
39 26
18 19
11 15
15 9
28 41
4 5
42 17
21 39
3 20
45 1
50 14
29 58
15 47
47 59
7 11
38 38
10 15
2 13
31 17
28 9
19 17
26 38
18 24
30 10
26 53
28 28
12 23
3 37
3 31
45 53
14 24
26 15
11 11
54 13
32 42
10 19
56 45
27 29
19 46
44 46
42 20
6 49
22 9
26 26
4 2
18 9
34 23
3 23
17 22
15 11
39 8
51 27
27 15
28 16
41 24
32 1
39 36
7 30
43 36
31 8
30 38
47 20
34 49
3 52
0 48
22 47
4 3
12 37
23 34
52 35
37 22
16 55
32 28
54 27
46 9
10 58
8 12
58 32
39 29
7 43
21 55
55 46
16 31
47 15
53 31
43 43
17 54
52 45
20 55
45 31
13 54
50 17
25 50
57 34
30 27
58 44
20 32
34 27
24 30
6 13
20 20
22 40
56 10
32 46
11 4
46 32
4 41
3 11
8 57
50 15
57 5
58 50
48 13
42 41
46 37
25 22
35 58
30 41
33 23
57 37
50 53
43 47
32 27
11 34
17 37
33 48
2 34
17 23
0 29
24 15
16 7
46 30
59 34
59 21
45 27
15 45
26 3
41 55
13 14
54 15
7 14
37 8
7 17
58 9
42 12
13 55
51 34
43 26
30 22
49 3
30 9
59 39
38 34
16 48
4 29
10 39
18 47
25 56
37 51
13 37
50 38
16 30
14 40
24 4
12 40
29 40
4 9
45 47
7 27
23 26
43 54
48 37
37 23
57 40
38 5
50 54
13 44
24 36
1 22
8 7
29 38
20 56
20 34
50 44
58 28
41 20
28 3
45 32
48 50
26 47
22 57
58 17
8 0
8 9
2 5
36 44
30 40
33 34
53 24
37 24
19 52
45 9
23 15
59 30
5 53
27 2
8 2
53 9
32 6
28 31
20 37
35 47
19 32
17 42
48 2
15 34
27 22
47 53
5 47
46 52
28 47
11 37
9 0
29 10
22 22
53 7
20 33
48 53
31 27
47 55
22 48
48 58
57 58
12 39
5 31
22 29
58 27
47 50
44 4
11 53
4 48
40 2
52 26
19 22
5 50
50 13
49 50
39 30
12 4
52 37
20 11
45 11
45 59
42 14
21 40
23 48
16 2
52 48
16 34
13 28
42 10
20 6
15 54
14 48
54 50
53 14
13 33
17 49
6 29
50 37
20 7
15 42
51 37
7 2
36 48
24 26
14 43
52 31
9 45
27 24
39 44
17 14
22 43
48 25
8 3
59 54
7 5
39 40
59 35
5 36
39 12
15 26
57 6
29 48
28 19
30 33
30 53
26 57
26 59
56 22
55 52
47 47
22 13
59 11
51 24
28 57
0 44
10 28
20 24
36 5
17 57
31 12
20 39
47 44
45 54
19 41
36 8
34 2
49 35
5 48
23 17
35 5
6 11
17 4
44 37
37 25
1 33
24 53
2 40
56 9
26 37
29 30
50 20
6 9
11 10
38 17
27 13
6 37
49 56
55 19
57 0
18 25
2 33
44 52
25 3
32 37
53 43
26 44
21 21
17 24
16 22
18 31
25 25
13 35
4 39
52 51
31 22
0 47
12 5
48 20
57 15
25 15
41 51
32 21
23 5
22 1
0 27
4 37
53 16
34 43
10 22
7 33
45 43
4 42
50 42
4 47
23 36
54 16
32 54
11 35
55 7
54 38
50 56
49 36
19 14
59 12
40 48
40 47
51 13
3 50
32 40
23 38
16 38
36 32
23 20
34 18
22 59
39 46
11 13
28 40
16 54
37 40
40 36
39 5
39 50
31 42
16 47
21 51
52 59
29 15
38 2
17 8
3 48
28 12
1 39
37 36
59 24
19 55
56 49
42 13
26 32
53 33
8 26
55 17
45 40
13 20
5 43
47 30
41 1
22 11
22 7
43 35
43 20
17 26
11 23
42 49
16 45
55 33
52 30
46 5
56 16
24 57
49 0
44 35
22 4
44 18
16 39
42 18
43 23
19 4
28 18
20 31
42 42
24 8
51 38
7 48
38 21
52 49
3 29
53 1
44 49
28 44
28 59
34 51
28 8
5 57
18 20
8 38
34 8
16 44
48 1
19 30
26 18
8 21
57 52
12 7
36 54
47 3
11 0
45 38
14 38
42 28
50 7
43 29
8 24
2 47
13 53
33 47
13 46
31 38
30 37
29 29
13 13
37 55
22 21
9 46
32 48
35 21
52 39
44 7
27 0
27 39
19 2
39 55
33 14
37 14
20 40
55 25
20 46
13 39
13 27
16 25
14 26
49 39
5 24
58 3
48 9
6 21
50 41
15 32
12 53
0 28
0 11
18 46
29 7
37 15
20 5
40 33
59 19
27 57
53 46
46 7
6 27
23 35
44 38
29 46
26 14
9 40
51 46
2 9
37 52
11 49
45 28
50 12
46 16
35 55
53 44
35 29
19 26
34 14
2 41
54 1
31 59
35 13
42 11
2 35
24 59
53 21
11 40
20 38
7 9
56 24
13 11
27 48
43 12
35 2
54 25
18 16
40 49
46 59
51 0
16 0
47 29
4 38
44 44
14 53
3 2
56 51
8 13
9 59
43 1
46 21
26 42
21 3
5 41
0 22
21 20
31 4
57 27
51 43
13 29
57 59
15 17
26 1
55 24
21 59
4 18
45 3
24 29
27 7
21 12
8 47
22 41
3 25
12 27
50 45
58 59
7 7
46 20
44 17
4 1
27 47
56 11
54 9
3 24
42 50
1 17
21 49
51 1
40 27
2 51
30 43
27 26
18 59
40 59
21 8
32 55
26 41
26 48
12 33
12 51
22 42
9 8
57 17
33 44
22 52
8 43
26 25
47 7
12 49
13 40
8 52
26 11
4 19
32 8
26 40
33 13
54 57
54 4
7 31
3 49
29 4
0 4
10 11
27 8
27 44
49 8
25 26
51 53
27 1
42 30
45 52
43 9
25 38
38 30
43 57
49 2
2 52
58 45
7 36
10 16
56 7
47 25
54 56
26 33
15 52
29 44
34 9
19 15
13 2
28 35
22 25
36 40
21 2
17 21
44 16
27 30
37 0
57 20
37 35
3 57
26 27
56 13
33 8
20 36
51 3
57 18
11 48
43 28
23 59
15 33
10 5
34 38
39 58
43 14
41 41
50 16
20 52
24 13
5 19
11 16
12 24
56 21
44 28
25 27
43 38
40 53
50 4
41 49
38 6
10 0
54 29
58 56
38 24
6 47
36 0
1 37
41 39
4 26
7 39
49 53
3 6
45 29
32 57
55 42
54 20
59 33
42 8
10 38
13 45
43 27
4 53
0 18
55 39
51 57
2 49
20 22
7 45
24 12
38 23
32 23
53 17
28 45
35 36
23 30
22 54
25 58
32 26
25 49
4 46
14 27
38 33
53 25
52 15
1 18
32 17
59 41
9 32
47 41
51 41
25 13
37 31
35 14
37 50
17 18
12 13
17 39
49 46
32 41
25 5
49 37
43 46
41 52
23 56
33 3
10 31
58 10
53 20
19 23
46 23
22 33
35 38
33 38
26 31
21 44
32 58
37 5
15 3
49 30
27 10
0 43
47 51
1 2
52 10
47 46
49 5
19 20
37 1
0 9
38 39
49 23
15 8
37 21
57 25
23 18
53 3
13 52
12 43
47 42
51 11
32 0
58 25
39 35
42 52
2 48
12 42
35 23
54 54
10 20
36 9
31 53
29 55
30 25
24 35
53 34
50 52
38 43
58 12
16 23
5 18
20 42
11 44
21 37
0 38
9 4
43 25
14 10
35 57
23 24
35 44
7 54
52 7
41 18
30 15
7 40
32 59
59 40
11 47
29 16
16 40
31 15
43 55
14 58
53 42
44 53
25 0
34 39
58 43
10 23
59 1
10 29
34 48
1 20
33 43
6 56
16 51
33 9
44 30
10 35
28 34
52 0
32 56
21 0
42 54
51 9
53 22
14 56
45 23
53 19
35 56
20 3
22 53
9 56
28 11
45 34
23 29
16 59
46 50
36 56
54 34
34 35
24 49
41 14
30 7
5 25
56 55
1 38
32 16
31 34
54 28
20 58
39 10
47 31
33 51
18 42
1 41
0 7
57 16
6 3
8 33
22 36
25 29
8 17
56 2
6 28
50 31
49 20
40 7
48 49
6 39
17 19
42 6
31 19
34 19
22 26
34 16
1 19
22 38
51 12
1 23
9 15
44 19
40 34
10 18
41 29
44 23
33 55
59 26
46 55
2 23
51 19
52 22
54 55
6 1
33 7
46 44
51 4
48 11
46 41
53 57
26 45
5 13
37 53
4 44
32 31
21 33
22 30
46 47
21 10
14 8
15 49
53 45
27 59
42 19
24 10
47 32
30 39
51 23
5 32
14 19
12 50
30 2
47 34
47 16
55 50
54 6
30 21
37 16
11 56
44 58
31 52
43 2
2 45
23 6
5 44
40 58
59 17
59 47
28 4
15 1
53 54
20 14
11 6
5 16
55 22
5 56
52 3
37 39
57 13
9 14
26 23
43 41
23 33
55 18
16 53
29 3
29 1
52 9
5 58
17 59
21 45
40 9
38 35
56 41
43 52
14 35
47 13
6 36
56 37
17 12
31 55
50 58
34 36
47 36
6 52
15 5
15 24
0 26
13 58
6 48
49 48
24 16
40 0
55 20
17 10
46 58
55 14
16 58
16 17
23 22
6 54
37 49
35 8
12 10
30 36
29 6
26 0
25 17
32 47
47 38
47 0
48 4
0 53
39 59
15 18
36 7
19 44
4 10
29 56
45 48
7 19
45 17
9 7
19 50
6 58
47 48
56 23
52 41
23 46
30 34
11 5
29 47
46 36
23 2
31 46
8 48
10 43
15 29
50 5
29 45
7 20
0 57
17 34
52 42
42 47
44 26
24 25
49 31
12 52
51 48
44 55
41 31
46 35
25 7
55 56
25 54
57 44
48 45
27 35
26 8
59 29
4 16
19 13
33 18
2 14
3 54
24 14
2 27
45 10
58 16
22 34
10 47
23 4
47 17
11 14
31 21
58 19
38 44
5 20
46 49
58 35
32 4
43 13
40 26
1 14
20 12
47 9
42 32
56 26
11 33
23 51
2 19
4 27
26 9
15 48
51 17
1 8
21 24
0 25
14 11
35 35
0 40
33 56
49 49
0 32
24 6
6 2
15 46
7 26
56 15
24 34
40 44
32 50
54 26
59 51
41 46
18 50
35 37
52 29
44 8
56 31
41 36
49 43
17 16
30 1
10 52
39 3
38 3
25 34
30 8
55 16
25 20
1 56
10 30
18 30
22 46
9 29
15 57
9 2
15 55
30 57
34 31
55 26
37 44
41 35
30 14
31 47
10 17
33 21
39 45
42 45
30 59
44 43
17 55
27 3
40 10
53 8
13 0
57 2
13 47
51 59
42 38
6 25
20 49
29 17
19 3
52 43
44 27
28 50
46 27
36 19
35 40
42 36
46 54
48 52
17 33
58 58
0 41
47 8
30 30
43 7
7 49
48 28
3 9
13 7
41 13
13 12
44 34
50 1
37 32
57 7
30 11
45 21
16 26
50 55
39 31
45 22
47 43
5 5
0 2
21 30
25 24
40 8
26 6
17 53
16 9
14 55
24 41
30 54
52 54
14 36
11 19
50 47
11 36
59 22
32 30
54 11
21 13
45 6
33 50
55 37
5 17
8 39
14 16
12 2
44 21
29 2
40 56
12 36
9 48
12 28
3 42
42 16
19 10
30 6
47 21
31 14
30 56
42 25
27 31
5 23
27 6
48 23
1 51
50 32
33 16
7 58
5 55
18 53
29 12
57 26
22 32
13 25
40 29
50 40
44 2
14 18
53 37
40 20
43 24
49 4
29 35
21 47
3 34
4 25
31 54
7 44
59 28
1 10
38 22
4 52
25 39
41 27
6 33
0 36
18 18
58 7
39 9
49 10
55 30
25 18
43 39
21 57
45 36
14 45
51 35
21 11
23 47
38 25
18 48
4 33
16 10
40 55
26 58
34 58
9 49
48 5
19 8
37 42
13 34
49 25
12 58
39 28
6 19
54 44
52 21
52 44
39 11
1 49
30 29
8 27
37 10
29 25
41 21
10 46
51 44
48 57
41 30
38 18
54 39
50 2
37 13
50 0
40 15
28 10
1 1
20 51
34 12
31 26
27 14
51 33
12 18
25 2
9 23
58 34
41 2
17 15
1 9
18 35
18 15
6 41
38 13
15 56
0 23
28 13
33 25
18 55
35 26
40 14
47 10
42 9
9 17
34 30
0 1
51 14
0 12
48 3
10 50
57 11
16 13
44 13
9 38
45 25
15 30
13 48
53 55
2 29
43 48
6 7
8 4
23 37
2 11
52 4
17 6
3 28
24 32
56 39
1 31
22 14
52 34
20 59
48 6
59 9
1 21
9 24
57 8
27 50
58 33
35 48
57 28
38 58
8 44
8 6
31 30
39 42
7 42
45 46
35 3
20 44
59 42
2 55
42 51
55 1
45 4
33 27
38 51
54 40
5 30
11 38
27 53
7 47
17 41
52 50
52 19
39 6
46 53
58 53
10 8
38 53
33 49
10 37
33 41
58 54
16 29
50 10
58 47
15 15
8 56
56 12
53 4
14 41
54 12
34 25
10 48
50 50
23 1
52 47
46 42
35 46
34 37
27 17
19 37
57 53
31 18
39 53
48 26
36 58
53 47
11 26
7 35
21 43
37 7
54 23
37 3
20 1
40 4
34 54
47 28
46 34
24 7
59 0
32 19
22 17
19 49
40 18
59 31
44 10
20 47
0 10
4 57
21 58
11 32
19 31
39 14
56 42
46 19
37 4
47 52
5 9
51 16
17 0
21 16
27 43
40 39
27 41
53 38
58 13
27 46
49 32
40 6
30 4
55 53
24 21
6 6
21 54
1 59
52 1
39 1
15 38
13 41
3 10
26 16
11 1
34 56
49 59
57 42
30 51
51 58
19 38
13 26
59 4
13 4
9 41
34 0
7 12
2 37
17 50
19 25
30 48
44 20
3 26
5 35
53 51
15 58
51 56
40 40
59 16
39 48
55 15
38 57
49 18
48 31
2 30
24 33
26 34
6 31
39 43
1 45
23 44
22 58
27 9
12 56
56 53
51 5
54 36
3 44
4 20
38 49
1 47
24 20
3 46
43 4
51 55
32 24
27 20
16 36
39 21
41 19
18 17
23 23
31 57
35 9
0 46
15 12
9 11
8 59
1 13
12 20
12 11
16 42
19 5
11 18
53 23
23 27
41 12
29 8
7 0
43 33
6 12
40 21
17 32
26 51
3 45
0 6
9 55
36 14
10 3
58 14
47 4
41 23
22 39
17 11
22 51
35 4
29 42
9 44
2 2
28 32
15 37
36 15
22 55
59 27
15 28
41 3
48 59
38 56
8 49
10 10
30 52
55 43
45 51
42 7
24 40
6 45
16 19
18 0
45 0
14 4
6 24
18 56
17 27
19 24
12 59
31 28
48 30
4 13
5 14
54 2
4 35
35 27
58 51
58 49
48 40
13 21
23 12
14 22
15 25
18 57
54 17
29 11
34 11
49 11
59 58
58 48
43 58
31 16
6 34
1 46
50 26
16 32
57 3
21 17
9 22
45 33
40 30
13 23
31 10
49 28
7 6
11 31
10 2
59 45
57 46
31 2
54 51
24 9
34 1
5 11
56 19
0 58
56 14
46 26
46 13
38 1
29 5
8 14
45 58
55 2
8 51
33 54
12 47
40 31
56 36
37 17
18 7
6 51
55 13
18 28
28 27
42 3
32 18
56 6
31 5
37 18
29 53
39 37
4 58
17 35
28 1
27 42
12 6
55 10
46 24
55 21
31 43
0 52
23 9
58 38
37 27
14 0
46 56
7 23
6 53
29 36
47 27
53 11
40 32
52 2
36 39
43 42
30 42
20 18
13 30
31 35
42 29
11 27
39 7
17 20
59 20
39 52
12 1
8 16
58 21
10 59
27 11
49 6
50 21
53 10
50 39
34 15
50 29
4 24
14 39
17 47
52 25
53 39
10 9
9 26
36 23
14 21
30 45
43 56
55 12
15 6
52 58
47 49
12 57
40 22
33 20
40 54
19 45
55 6
4 17
17 31
41 42
17 56
18 38
49 22
26 10
30 26
36 13
9 31
47 14
56 56
2 8
47 35
14 44
59 14
42 48
41 44
23 13
45 50
18 36
39 18
15 7
56 0
4 32
9 28
47 37
40 41
28 23
2 58
54 58
33 19
49 45
7 22
56 59
6 23
22 44
32 35
59 53
43 32
11 30
4 43
11 57
53 50
53 12
21 7
3 12
19 19
41 43
10 57
24 39
5 1
7 25
46 3
28 53
2 57
15 39
16 46
13 18
50 36
8 19
59 23
9 50
21 35
23 11
36 35
6 4
28 49
18 54
34 44
42 1
17 38
3 40
1 50
34 32
47 6
59 18
26 28
41 4
35 53
6 14
31 41
17 58
17 44
27 28
32 10
13 8
23 50
20 27
37 12
2 36
49 26
51 10
47 57
44 57
8 37
22 15
45 13
36 47
56 4
14 49
3 18
35 22
20 43
54 37
3 51
20 25
11 3
25 8
32 14
39 22
55 38
32 45
33 5
41 50
29 59
17 2
35 20
45 42
18 32
5 45
12 31
38 20
2 15
55 3
23 10
35 28
54 49
23 3
57 21
1 48
28 38
45 39
25 52
2 18
49 1
3 5
56 29
11 51
12 35
42 59
14 20
19 18
36 6
29 22
45 49
22 8
4 8
52 8
4 49
54 48
32 44
34 7
35 18
34 26
17 17
43 30
29 23
37 45
49 47
55 41
46 39
6 50
48 18
13 5
3 36
26 5
35 24
1 0
58 31
39 49
59 3
20 35
33 6
17 1
14 1
55 0
31 32
21 52
22 18
37 20
59 32
26 36
27 36
19 48
31 39
5 52
18 45
3 43
9 34
8 32
27 27
51 42
59 52
45 12
42 55
37 37
32 43
57 38
29 57
17 30
31 1
55 11
32 15
50 59
44 9
41 40
53 35
10 54
24 0
36 46
18 22
16 16
1 36
7 50
19 57
14 30
4 50
15 53
16 52
21 5
14 34
50 28
42 39
8 10
25 43
18 51
19 21
24 38
35 12
28 22
51 25
2 56
19 43
2 4
56 46
12 19
26 12
43 16
14 5
47 22
25 41
38 52
13 6
29 50
38 28
17 51
35 49
54 14
46 10
15 10
0 13
26 55
3 3
9 51
37 54
3 16
53 26
54 45
58 20
56 44
53 2
31 24
55 45
26 21
39 16
36 30
32 29
23 42
41 22
16 5
50 6
25 21
33 36
38 8
37 2
52 24
7 56
41 0
43 37
8 15
19 0
15 43
33 45
25 23
59 55
15 4
5 39
11 8
52 27
45 35
45 14
50 18
43 34
53 18
38 11
37 38
41 33
30 16
12 38
48 42
7 51
44 45
34 46
51 28
16 24
14 42
4 12
58 18
35 30
10 21
37 56
15 13
29 41
12 25
24 50
38 48
11 25
8 36
6 38
12 16
28 5
7 52
31 44
10 36
45 55
6 17
32 38
1 44
44 54
2 26
41 58
24 58
6 30
55 5
21 25
39 41
49 33
52 17
53 48
1 55
36 49
55 31
19 51
10 33
21 50
56 35
46 31
19 27
50 11
56 20
8 28
29 32
1 3
2 6
59 46
0 16
41 16
3 1
43 10
0 42
19 36
30 46
0 19
40 51
7 1
29 33
42 5
13 49
12 26
35 0
43 50
48 41
14 23
47 39
42 58
36 28
1 57
44 41
51 21
0 49
51 15
27 54
7 8
50 48
47 26
47 1
22 16
18 12
16 56
39 24
23 19
44 12
50 9
19 58
41 56
17 43
36 36
24 37
22 37
49 58
14 46
45 15
25 11
8 22
12 29
32 34
29 19
2 28
59 6
6 20
38 14
5 59
44 36
29 26
2 7
49 34
44 1
0 56
59 10
4 11
59 7
42 44
4 22
20 53
36 2
48 10
22 28
46 1
45 18
6 55
56 25
29 21
42 33
27 19
51 2
43 17
50 8
51 54
58 29
55 36
34 42
43 8
54 22
20 9
37 59
8 42
25 28
36 3
14 37
12 55
16 1
33 1
46 17
45 37
52 20
59 8
24 11
56 43
22 45
26 20
43 11
44 47
14 3
51 30
39 17
47 56
29 28
38 4
49 19
25 9
6 42
24 56
14 14
25 40
23 55
43 40
13 42
11 43
55 4
38 26
23 52
2 32
44 50
1 27
17 9
9 30
6 43
9 1
19 59
5 28
45 44
50 24
39 23
4 56
57 51
34 55
27 23
53 28
43 44
31 11
44 42
57 48
5 34
31 40
46 51
32 7
5 6
52 36
4 51
50 22
39 57
37 57
33 53
23 16
44 5
32 3
23 41
11 28
59 44
28 51
20 48
39 0
13 50
26 24
9 58
25 4
40 23
25 35
40 38
2 31
28 0
3 39
54 0
24 43
21 34
1 30
16 37
33 37
49 9
26 39
43 18
57 19
46 8
8 34
27 51
58 8
1 32
36 57
18 49
9 54
51 6
26 30
0 45
47 33
52 18
31 20
47 45
30 32
4 34
51 31
29 31
13 17
46 15
11 50
7 59
0 50
24 42
56 30
24 1
26 49
19 40
52 40
12 44
34 17
1 24
33 12
30 3
11 54
45 41
33 29
31 31
24 44
